Module 1/Lab 14/Domain_Specific_Reset/Waveforms/domain_reset.vcd
$version Generated by VerilatedVcd $end
$timescale 1ps $end
 $scope module domain_reset_tb $end
  $var wire 1 # clk1 $end
  $var wire 1 $ clk2 $end
  $var wire 1 % rst1 $end
  $var wire 1 & rst2 $end
  $var wire 1 ) d1 $end
  $var wire 1 ) d2 $end
  $var wire 1 ' q1 $end
  $var wire 1 ( q2 $end
  $scope module uut $end
   $var wire 1 # clk1 $end
   $var wire 1 $ clk2 $end
   $var wire 1 % rst1 $end
   $var wire 1 & rst2 $end
   $var wire 1 ) d1 $end
   $var wire 1 ) d2 $end
   $var wire 1 ' q1 $end
   $var wire 1 ( q2 $end
  $upscope $end
 $upscope $end
$enddefinitions $end


#0
0#
0$
0%
0&
0'
0(
1)
#4
1#
1'
#6
1$
1(
#8
0#
#10
1%
#12
1#
0$
0'
#16
0#
#18
1$
0%
#20
1#
1'
#24
0#
0$
#28
1#
#30
1$
#32
0#
#33
1&
#36
1#
0$
#40
0#
#42
1$
0(
#43
0&
#44
1#
#48
0#
0$
#52
1#
#54
1$
1(
