Module 1/Lab 09/Waveforms/apb_timer.vcd
$version Generated by VerilatedVcd $end
$timescale 1ps $end
 $scope module apb_timer_tb $end
  $var wire 1 - PCLK $end
  $var wire 1 # PRESETn $end
  $var wire 1 $ PSEL $end
  $var wire 1 % PENABLE $end
  $var wire 1 & PWRITE $end
  $var wire 8 ' PADDR [7:0] $end
  $var wire 32 ( PWDATA [31:0] $end
  $var wire 32 . PRDATA [31:0] $end
  $var wire 1 ) timer_done $end
  $scope module uut $end
   $var wire 32 / WIDTH [31:0] $end
   $var wire 1 - PCLK $end
   $var wire 1 # PRESETn $end
   $var wire 1 $ PSEL $end
   $var wire 1 % PENABLE $end
   $var wire 1 & PWRITE $end
   $var wire 8 ' PADDR [7:0] $end
   $var wire 32 ( PWDATA [31:0] $end
   $var wire 32 . PRDATA [31:0] $end
   $var wire 1 ) timer_done $end
   $var wire 8 * load_val [7:0] $end
   $var wire 8 + count [7:0] $end
   $var wire 1 , running $end
  $upscope $end
 $upscope $end
$enddefinitions $end


#0
0#
0$
0%
0&
b00000000 '
b00000000000000000000000000000000 (
0)
b00000000 *
b00000000 +
0,
0-
b00000000000000000000000000000000 .
b00000000000000000000000000001000 /
#5000
1-
#10000
1#
0-
#15000
1$
1&
b00000000000000000000000000000101 (
1-
#20000
0-
#25000
1%
b00000101 *
1-
#30000
0-
#35000
0$
0%
0&
1-
#40000
0-
#45000
1$
1&
b00000100 '
b00000000000000000000000000000001 (
1-
#50000
0-
#55000
1%
1,
1-
#60000
0-
#65000
0$
0%
0&
1)
b00000101 +
0,
1-
#70000
0-
#75000
1-
#80000
0-
#85000
1-
#90000
0-
#95000
1-
#100000
0-
#105000
1-
#110000
0-
#115000
1-
#120000
0-
#125000
1-
#130000
0-
#135000
1-
#140000
0-
#145000
1-
#150000
0-
#155000
1$
b00001000 '
1-
b00000000000000000000000000000001 .
#160000
0-
#165000
1%
1-
#170000
0-
#175000
0$
0%
1-
b00000000000000000000000000000000 .
#180000
0-
#185000
1$
1&
b00000000 '
b00000000000000000000000000000011 (
1-
#190000
0-
#195000
1%
b00000011 *
1-
#200000
0-
#205000
0$
0%
0&
1-
#210000
0-
#215000
1$
1&
b00000100 '
b00000000000000000000000000000001 (
1-
#220000
0-
#225000
1%
1,
1-
#230000
0-
#235000
0$
0%
0&
0)
b00000100 +
1-
#240000
0-
#245000
b00000011 +
1-
#250000
0-
#255000
b00000010 +
1-
#260000
0-
#265000
b00000001 +
1-
#270000
0-
#275000
b00000000 +
1-
#280000
0-
#285000
1)
b00000011 +
0,
1-
#290000
0-
#295000
1$
b00001000 '
1-
b00000000000000000000000000000001 .
#300000
0-
#305000
1%
1-
#310000
0-
#315000
0$
0%
1-
b00000000000000000000000000000000 .
